{
  "implemented": true,
  "name": "Mamoswine",
  "nationalPokedexNumber": 473,
  "primaryType": "ice",
  "secondaryType": "ground",
  "abilities": [
    "oblivious",
    "snowcloak",
    "h:thickfat"
  ],
  "baseStats": {
    "hp": 110,
    "attack": 130,
    "defence": 80,
    "special_attack": 70,
    "special_defence": 60,
    "speed": 80
  },
  "behaviour": {
    "resting": {
      "canSleep": true,
      "willSleepOnBed": false,
      "depth": "normal",
      "light": "0-4"
    }
  },
  "catchRate": 50,
  "maleRatio": 0.5,
  "shoulderMountable": false,
  "baseExperienceYield": 265,
  "experienceGroup": "slow",
  "eggCycles": 20,
  "eggGroups": [
    "field"
  ],
  "drops": {
    "amount": "2",
    "entries": [
      {
        "item": "minecraft:raw_porkchop",
        "quantityRange": "2-3"
      },
      {
        "item": "minecraft:brown_wool",
        "quantityRange": "2-3"
      }
    ]
  },
  "moves": [
    "1:ancientpower",
    "1:flail",
    "1:furyattack",
    "1:icefang",
    "1:mudslap",
    "1:mudsport",
    "1:odorsleuth",
    "1:peck",
    "1:powdersnow",
    "1:scaryface",
    "1:tackle",
    "11:mudslap",
    "13:mudslap",
    "14:endure",
    "15:iceshard",
    "16:endure",
    "18:mudbomb",
    "20:mist",
    "20:mudbomb",
    "21:hail",
    "24:icefang",
    "25:endure",
    "25:hail",
    "28:icefang",
    "28:takedown",
    "30:icywind",
    "32:takedown",
    "33:doublehit",
    "37:amnesia",
    "37:mist",
    "40:earthquake",
    "41:thrash",
    "44:takedown",
    "46:earthquake",
    "48:mist",
    "51:earthquake",
    "52:blizzard",
    "56:blizzard",
    "58:blizzard",
    "65:scaryface",
    "65:thrash",
    "tm:amnesia",
    "tm:attract",
    "tm:avalanche",
    "tm:blizzard",
    "tm:bodypress",
    "tm:bodyslam",
    "tm:bulldoze",
    "tm:captivate",
    "tm:confide",
    "tm:dig",
    "tm:doubleteam",
    "tm:earthpower",
    "tm:earthquake",
    "tm:endure",
    "tm:facade",
    "tm:frustration",
    "tm:gigaimpact",
    "tm:hail",
    "tm:heavyslam",
    "tm:hiddenpower",
    "tm:highhorsepower",
    "tm:hyperbeam",
    "tm:icebeam",
    "tm:icefang",
    "tm:iciclespear",
    "tm:icywind",
    "tm:ironhead",
    "tm:lightscreen",
    "tm:mudshot",
    "tm:naturalgift",
    "tm:protect",
    "tm:raindance",
    "tm:reflect",
    "tm:rest",
    "tm:return",
    "tm:roar",
    "tm:rockblast",
    "tm:rockclimb",
    "tm:rockslide",
    "tm:rocksmash",
    "tm:rocktomb",
    "tm:round",
    "tm:sandstorm",
    "tm:sandtomb",
    "tm:scaryface",
    "tm:secretpower",
    "tm:sleeptalk",
    "tm:snore",
    "tm:stealthrock",
    "tm:stompingtantrum",
    "tm:stoneedge",
    "tm:strength",
    "tm:substitute",
    "tm:superpower",
    "tm:swagger",
    "tm:toxic",
    "tutor:ancientpower",
    "tutor:block",
    "tutor:doublehit",
    "tutor:earthpower",
    "tutor:earthquake",
    "tutor:endeavor",
    "tutor:furycutter",
    "tutor:hail",
    "tutor:headbutt",
    "tutor:icefang",
    "tutor:iciclecrash",
    "tutor:iciclespear",
    "tutor:icywind",
    "tutor:ironhead",
    "tutor:knockoff",
    "tutor:mudslap",
    "tutor:rockslide",
    "tutor:sleeptalk",
    "tutor:snore",
    "tutor:stealthrock",
    "tutor:stompingtantrum",
    "tutor:superpower",
    "tutor:takedown"
  ],
  "labels": [
    "gen4"
  ],
  "pokedex": [
    "cobblemon.species.mamoswine.desc"
  ],
  "preEvolution": "piloswine",
  "evolutions": [],
  "baseScale": 3,
  "hitbox": {
    "width": 1.3,
    "height": 1.2,
    "fixed": false
  },
  "baseFriendship": 50,
  "evYield": {
    "hp": 0,
    "attack": 3,
    "defence": 0,
    "special_attack": 0,
    "special_defence": 0,
    "speed": 0
  },
  "height": 25,
  "weight": 2910,
  "aspects": [],
  "cannotDynamax": false
}